%YAML 1.1
%TAG !u! tag:unity3d.com,2011:
--- !u!114 &11400000
MonoBehaviour:
  m_ObjectHideFlags: 0
  m_CorrespondingSourceObject: {fileID: 0}
  m_PrefabInstance: {fileID: 0}
  m_PrefabAsset: {fileID: 0}
  m_GameObject: {fileID: 0}
  m_Enabled: 1
  m_EditorHideFlags: 0
  m_Script: {fileID: 11500000, guid: c21e96c0487127d4d986e3b87e5b8b0e, type: 3}
  m_Name: PersonalSpace Setting
  m_EditorClassIdentifier: 
  cameraMoveSpeed: 2
  cameraZoomStep: 0.5
  cameraMinZoom: 1
  cameraMaxZoom: 10
