[
  {
    "type": 0,
    "sub": [
      "Head",
      "Hair"
    ]
  },
  {
    "type": 1,
    "sub": [
      "Face"
    ]
  },
  {
    "type": 2,
    "sub": [
      "Torso",
	  "Arm"
    ]
  },
  {
    "type": 3,
    "sub": [
      "Hip",
	  "Thigh",
	  "Leg",
	  "Shoe"
    ]
  }
]